{
    "description":"A tiny course for web development. This course covers both basis of coding and notions of design and ergonomy. It is meant to give students autonomy in design of small scale websites. It focuses more on frontend development than on backend.",
    "tags":["web development", "web design", "ergonomy", "programming"],
    "forms":["small course", "full course"]
}
